…
```r
    library(dplyr)
  
    #caclulate the total steps by day
        sumSteps <- activity %>%           # Specify original dataframe
            group_by(date) %>%             # Grouping variable(s)
            summarise(
              sumSteps = sum(steps),       # calculate sum of steps in activity
              )  ; sumSteps      
```

```
## # A tibble: 61 x 2
##    date       sumSteps
##    <date>        <dbl>
##  1 2012-10-01       NA
##  2 2012-10-02      126
##  3 2012-10-03    11352
##  4 2012-10-04    12116
##  5 2012-10-05    13294
##  6 2012-10-06    15420
##  7 2012-10-07    11015
##  8 2012-10-08       NA
##  9 2012-10-09    12811
## 10 2012-10-10     9900
## # … with 51 more rows
```
…
### Mean and median number of steps taken each day
#### Step 1: Calulate the mean by day
#### Step 2: Calulate the median by day

```r
    #calulate the mean by day
        meanSteps <- activity %>%          # Specify original dataframe
            group_by(date) %>%             # Grouping variable(s)
            summarise(
              meanSteps = mean(steps),     # calculate mean of steps in activity
             ); meanSteps        
```

```
## # A tibble: 61 x 2
##    date       meanSteps
##    <date>         <dbl>
##  1 2012-10-01    NA    
##  2 2012-10-02     0.438
##  3 2012-10-03    39.4  
##  4 2012-10-04    42.1  
##  5 2012-10-05    46.2  
##  6 2012-10-06    53.5  
##  7 2012-10-07    38.2  
##  8 2012-10-08    NA    
##  9 2012-10-09    44.5  
## 10 2012-10-10    34.4  
## # … with 51 more rows
```

```r
    #calulate the median by day
        medianSteps <- activity %>%        # Specify original dataframe
            group_by(date) %>%             # Grouping variable(s)
            filter(steps > 0)  %>%         # Filter 0's or all the medians will be zero
            summarise(
              medianSteps = median(steps)  # calculate median of steps in activity
          ) ; medianSteps       
```

```
## # A tibble: 53 x 2
##    date       medianSteps
##    <date>           <dbl>
##  1 2012-10-02        63  
##  2 2012-10-03        61  
##  3 2012-10-04        56.5
##  4 2012-10-05        66  
##  5 2012-10-06        67  
##  6 2012-10-07        52.5
##  7 2012-10-09        48  
##  8 2012-10-10        56.5
##  9 2012-10-11        35  
## 10 2012-10-12        46  
## # … with 43 more rows
```
…
